{
    "errno": 0,
    "data": {
        "total": 224,
        "pages": 23,
        "limit": 10,
        "page": 1,
        "list": [
            {
                "orderStatusText": "已取消",
                "aftersaleStatus": 0,
                "isGroupin": false,
                "orderSn": "20260327074525",
                "actualPrice": 145.00,
                "goodsList": [
                    {
                        "number": 1,
                        "picUrl": "http://yanxuan.nosdn.127.net/23e0203f1512f33e605f61c28fa03d2d.png",
                        "price": 59.00,
                        "id": 404,
                        "goodsName": "日式纯棉针织条纹抱枕",
                        "specifications": [
                            "标准"
                        ]
                    }
                ],
                "id": 300,
                "handleOption": {
                    "cancel": false,
                    "delete": true,
                    "pay": false,
                    "comment": false,
                    "confirm": false,
                    "refund": false,
                    "rebuy": false,
                    "aftersale": false
                }
            },
            {
                "orderStatusText": "已取消",
                "aftersaleStatus": 0,
                "isGroupin": false,
                "orderSn": "20260327102641",
                "actualPrice": 165.00,
                "goodsList": [
                    {
                        "number": 1,
                        "picUrl": "http://yanxuan.nosdn.127.net/c8ca0600fa7ba11ca8be6a3173dd38c9.png",
                        "price": 79.00,
                        "id": 403,
                        "goodsName": "多功能午睡枕",
                        "specifications": [
                            "标准"
                        ]
                    }
                ],
                "id": 299,
                "handleOption": {
                    "cancel": false,
                    "delete": true,
                    "pay": false,
                    "comment": false,
                    "confirm": false,
                    "refund": false,
                    "rebuy": false,
                    "aftersale": false
                }
            },
            {
                "orderStatusText": "已取消",
                "aftersaleStatus": 0,
                "isGroupin": false,
                "orderSn": "20260327714151",
                "actualPrice": 1000.00,
                "goodsList": [
                    {
                        "number": 1,
                        "picUrl": "http://yanxuan.nosdn.127.net/36f64a7161b67e7fb8ea45be32ecfa25.png?quality=90&thumbnail=200x200&imageView",
                        "price": 1000.00,
                        "id": 402,
                        "goodsName": "母亲节礼物-舒适安睡组合",
                        "specifications": [
                            "1.5m床垫*1+枕头*2",
                            "烟白灰"
                        ]
                    }
                ],
                "id": 298,
                "handleOption": {
                    "cancel": false,
                    "delete": true,
                    "pay": false,
                    "comment": false,
                    "confirm": false,
                    "refund": false,
                    "rebuy": false,
                    "aftersale": false
                }
            },
            {
                "orderStatusText": "已取消",
                "aftersaleStatus": 0,
                "isGroupin": false,
                "orderSn": "20260327948516",
                "actualPrice": 2000.00,
                "goodsList": [
                    {
                        "number": 1,
                        "picUrl": "quality=90&thumbnail=200x200&imageView",
                        "price": 2000.00,
                        "id": 401,
                        "goodsName": "母亲节礼物-舒适安睡组合",
                        "specifications": [
                            "1.8m床垫*1+枕头*2",
                            "玛瑙红"
                        ]
                    }
                ],
                "id": 297,
                "handleOption": {
                    "cancel": false,
                    "delete": true,
                    "pay": false,
                    "comment": false,
                    "confirm": false,
                    "refund": false,
                    "rebuy": false,
                    "aftersale": false
                }
            },
            {
                "orderStatusText": "已取消(系统)",
                "aftersaleStatus": 0,
                "isGroupin": false,
                "orderSn": "20260327499269",
                "actualPrice": 758.00,
                "goodsList": [
                    {
                        "number": 1,
                        "picUrl": "http://yanxuan.nosdn.127.net/615a16e899e01efb780c488df4233f48.png",
                        "price": 459.00,
                        "id": 394,
                        "goodsName": "Carat钻石 不粘厨具组合",
                        "specifications": [
                            "标准"
                        ]
                    },
                    {
                        "number": 1,
                        "picUrl": "http://yanxuan.nosdn.127.net/5350e35e6f22165f38928f3c2c52ac57.png",
                        "price": 299.00,
                        "id": 395,
                        "goodsName": "意式毛线绣球四件套",
                        "specifications": [
                            "标准"
                        ]
                    }
                ],
                "id": 293,
                "handleOption": {
                    "cancel": false,
                    "delete": true,
                    "pay": false,
                    "comment": false,
                    "confirm": false,
                    "refund": false,
                    "rebuy": false,
                    "aftersale": false
                }
            },
            {
                "orderStatusText": "已取消(系统)",
                "aftersaleStatus": 0,
                "isGroupin": false,
                "orderSn": "20260327328367",
                "actualPrice": 999.00,
                "goodsList": [
                    {
                        "number": 1,
                        "picUrl": "http://yanxuan.nosdn.127.net/1f67b1970ee20fd572b7202da0ff705d.png",
                        "price": 999.00,
                        "id": 393,
                        "goodsName": "母亲节礼物-舒适安睡组合",
                        "specifications": [
                            "1.5m床垫*1+枕头*2",
                            "浅杏粉"
                        ]
                    }
                ],
                "id": 292,
                "handleOption": {
                    "cancel": false,
                    "delete": true,
                    "pay": false,
                    "comment": false,
                    "confirm": false,
                    "refund": false,
                    "rebuy": false,
                    "aftersale": false
                }
            },
            {
                "orderStatusText": "已取消(系统)",
                "aftersaleStatus": 0,
                "isGroupin": false,
                "orderSn": "20260327377333",
                "actualPrice": 165.00,
                "goodsList": [
                    {
                        "number": 1,
                        "picUrl": "http://yanxuan.nosdn.127.net/c8ca0600fa7ba11ca8be6a3173dd38c9.png",
                        "price": 79.00,
                        "id": 392,
                        "goodsName": "多功能午睡枕",
                        "specifications": [
                            "标准"
                        ]
                    }
                ],
                "id": 291,
                "handleOption": {
                    "cancel": false,
                    "delete": true,
                    "pay": false,
                    "comment": false,
                    "confirm": false,
                    "refund": false,
                    "rebuy": false,
                    "aftersale": false
                }
            },
            {
                "orderStatusText": "已取消(系统)",
                "aftersaleStatus": 0,
                "isGroupin": false,
                "orderSn": "20260327020280",
                "actualPrice": 165.00,
                "goodsList": [
                    {
                        "number": 1,
                        "picUrl": "http://yanxuan.nosdn.127.net/c8ca0600fa7ba11ca8be6a3173dd38c9.png",
                        "price": 79.00,
                        "id": 383,
                        "goodsName": "多功能午睡枕",
                        "specifications": [
                            "标准"
                        ]
                    }
                ],
                "id": 284,
                "handleOption": {
                    "cancel": false,
                    "delete": true,
                    "pay": false,
                    "comment": false,
                    "confirm": false,
                    "refund": false,
                    "rebuy": false,
                    "aftersale": false
                }
            },
            {
                "orderStatusText": "已取消",
                "aftersaleStatus": 0,
                "isGroupin": false,
                "orderSn": "20260313164091",
                "actualPrice": 2997.00,
                "goodsList": [
                    {
                        "number": 3,
                        "picUrl": "http://yanxuan.nosdn.127.net/1f67b1970ee20fd572b7202da0ff705d.png",
                        "price": 999.00,
                        "id": 360,
                        "goodsName": "母亲节礼物-舒适安睡组合",
                        "specifications": [
                            "1.5m床垫*1+枕头*2",
                            "浅杏粉"
                        ]
                    }
                ],
                "id": 263,
                "handleOption": {
                    "cancel": false,
                    "delete": true,
                    "pay": false,
                    "comment": false,
                    "confirm": false,
                    "refund": false,
                    "rebuy": false,
                    "aftersale": false
                }
            },
            {
                "orderStatusText": "已取消(系统)",
                "aftersaleStatus": 0,
                "isGroupin": false,
                "orderSn": "20260313236073",
                "actualPrice": 598.00,
                "goodsList": [
                    {
                        "number": 2,
                        "picUrl": "http://yanxuan.nosdn.127.net/5350e35e6f22165f38928f3c2c52ac57.png",
                        "price": 299.00,
                        "id": 359,
                        "goodsName": "意式毛线绣球四件套",
                        "specifications": [
                            "标准"
                        ]
                    }
                ],
                "id": 262,
                "handleOption": {
                    "cancel": false,
                    "delete": true,
                    "pay": false,
                    "comment": false,
                    "confirm": false,
                    "refund": false,
                    "rebuy": false,
                    "aftersale": false
                }
            }
        ]
    },
    "errmsg": "成功"
}